…
    ## Warning: Expected 3 pieces. Missing pieces filled with `NA` in 788235 rows [1,
    ## 2, 4, 5, 7, 8, 10, 11, 13, 14, 16, 17, 19, 20, 22, 23, 25, 26, 28, 29, ...].

``` r
trigrams_filter %>% filter(word2 != "", word3 != "") %>% count(word1, word2, word3, sort=T)
```

    ## # A tibble: 39,257 x 4
    ##    word1     word2     word3           n
    ##    <chr>     <chr>     <chr>       <int>
    ##  1 singapore cambridge gce           225
    ##  2 ang       mo        kio           126
    ##  3 cambridge gce       normal        106
    ##  4 gce       normal    level         105
    ##  5 mass      rapid     transit       103
    ##  6 normal    level     examination   102
    ##  7 gce       ordinary  level         100
    ##  8 cambridge gce       ordinary       95
    ##  9 rapid     transit   mrt            82
    ## 10 choa      chu       kang           74
    ## # … with 39,247 more rows
…
