…
``` r
dtm_clean <- dtm_tidy %>% 
  filter(term %in% term_more_then_two) %>% # remove term only appear once
  filter(!str_detect(term, "\\d")) %>% # filter number
  anti_join(my_stop_words)

dtm_clean %>% count(term, sort = T)
```

    ## # A tibble: 28,654 x 2
    ##    term        n
    ##    <chr>   <int>
    ##  1 locate    325
    ##  2 include   248
    ##  3 road      247
    ##  4 house     216
    ##  5 serve     214
    ##  6 start     206
    ##  7 land      196
    ##  8 service   192
    ##  9 centre    190
    ## 10 park      187
    ## # … with 28,644 more rows
…
