…
What is the earlier lease commencement date and where are these flats
located?

``` r
sales %>% arrange(desc(lease_commence_date)) %>% 
  select(town, lease_commence_date)
```

    ## # A tibble: 79,100 x 2
    ##    town        lease_commence_date
    ##    <chr>                     <dbl>
    ##  1 BUKIT MERAH                2016
    ##  2 BUKIT MERAH                2016
    ##  3 BUKIT MERAH                2016
    ##  4 BUKIT MERAH                2016
    ##  5 BUKIT MERAH                2016
    ##  6 BUKIT MERAH                2016
    ##  7 BUKIT MERAH                2016
    ##  8 BUKIT MERAH                2016
    ##  9 BUKIT MERAH                2016
    ## 10 QUEENSTOWN                 2015
    ## # ... with 79,090 more rows

What are the largest HDB flats in Singapore? How much did they sell for?

``` r
sales %>% 
  arrange(floor_area_sqm) %>% 
  select(town, floor_area_sqm)
```

    ## # A tibble: 79,100 x 2
    ##    town        floor_area_sqm
    ##    <chr>                <dbl>
    ##  1 BUKIT MERAH             31
    ##  2 BUKIT MERAH             31
    ##  3 BUKIT MERAH             31
    ##  4 BUKIT MERAH             31
    ##  5 BUKIT MERAH             31
    ##  6 BUKIT MERAH             31
    ##  7 BUKIT MERAH             31
    ##  8 BUKIT MERAH             31
    ##  9 BUKIT MERAH             31
    ## 10 BUKIT MERAH             31
    ## # ... with 79,090 more rows

What is the most expensive flat in Punggol?

``` r
sales %>% 
  filter(town == "PUNGGOL") %>% 
  arrange(desc(resale_price)) %>% 
  select(town, block, street_name, resale_price)
```

    ## # A tibble: 4,386 x 4
    ##    town    block street_name   resale_price
    ##    <chr>   <chr> <chr>                <dbl>
    ##  1 PUNGGOL 305B  PUNGGOL RD          870000
    ##  2 PUNGGOL 267A  PUNGGOL FIELD       860000
    ##  3 PUNGGOL 270A  PUNGGOL FIELD       835000
    ##  4 PUNGGOL 306D  PUNGGOL DR          800000
    ##  5 PUNGGOL 305A  PUNGGOL RD          788000
    ##  6 PUNGGOL 305D  PUNGGOL DR          780000
    ##  7 PUNGGOL 306A  PUNGGOL PL          760000
    ##  8 PUNGGOL 272A  PUNGGOL WALK        728000
    ##  9 PUNGGOL 271C  PUNGGOL WALK        725000
    ## 10 PUNGGOL 270B  PUNGGOL FIELD       722800
    ## # ... with 4,376 more rows

Which town has, on average, the largest flats (by floor area)?

``` r
sales %>% 
  group_by(town) %>% 
  summarise(average_area = mean(floor_area_sqm)) %>% 
  arrange(desc(average_area))
```

    ## # A tibble: 26 x 2
    ##    town          average_area
    ##    <chr>                <dbl>
    ##  1 PASIR RIS             123.
    ##  2 CHOA CHU KANG         111.
    ##  3 BUKIT TIMAH           110.
    ##  4 WOODLANDS             107.
    ##  5 SEMBAWANG             107.
    ##  6 BISHAN                107.
    ##  7 TAMPINES              105.
    ##  8 BUKIT PANJANG         105.
    ##  9 JURONG WEST           102.
    ## 10 HOUGANG               102.
    ## # ... with 16 more rows

Which town has, on average, the cheapest flats per square meter?

``` r
sales %>%
  mutate(
    price_per_sqr_m = resale_price / floor_area_sqm
  ) %>% 
  group_by(town) %>% 
  summarise(average_price_per_sqr = mean(price_per_sqr_m)) %>% 
  arrange(average_price_per_sqr)
```

    ## # A tibble: 26 x 2
    ##    town          average_price_per_sqr
    ##    <chr>                         <dbl>
    ##  1 CHOA CHU KANG                 3529.
    ##  2 WOODLANDS                     3625.
    ##  3 SEMBAWANG                     3729.
    ##  4 YISHUN                        3907.
    ##  5 PASIR RIS                     3920.
    ##  6 JURONG WEST                   3928.
    ##  7 BUKIT PANJANG                 4016.
    ##  8 BUKIT BATOK                   4126.
    ##  9 HOUGANG                       4182.
    ## 10 SENGKANG                      4341.
    ## # ... with 16 more rows
