Chapter 3 EDA for text contents | Explore Wikipedia locations
…
## Warning: Expected 3 pieces. Missing pieces filled with `NA` in 1520344 rows [1,
## 2, 4, 5, 7, 8, 10, 11, 13, 14, 16, 17, 19, 20, 22, 23, 25, 26, 28, 29, ...].

trigrams_filter %>% filter(word2 != "", word3 != "") %>% count(word1, word2, word3, sort=T)

## # A tibble: 73,058 x 4
##    word1     word2     word3       n
##    <chr>     <chr>     <chr>   <int>
##  1 singapore cambridge gce       239
##  2 mass      rapid     transit   154
##  3 ang       mo        kio       129
##  4 rapid     transit   mrt       126
##  5 world     war       ii        117
##  6 east      west      line      114
##  7 gce       ordinary  level     110
##  8 choa      chu       kang      108
##  9 lee       kuan      yew       107
## 10 cambridge gce       normal    106
## # … with 73,048 more rows
…
