Chapter 5 PCA | Explore Wikipedia locations
…
A potential interpretation of the regression model may be that the PC1 and PC2 will have higher estimated housing prices, which the divergence of schols/university/transport and other locations being cateched. This divergence intensify the housing price fluctuation. In other words, if the locations tend to be either educational area or others, the housing prices may show a relative increase or decrease.

topic_house_ols <- augment(ols, data = topic_house)
topic_house_ols

## # A tibble: 193 x 21
##    hex_id mean_price mean_area mean_sqr_price mean_lease topic topic_1 topic_2
##    <chr>       <dbl>     <dbl>          <dbl>      <dbl> <chr>   <dbl>   <dbl>
##  1 167       346766.     105.           3296.       70.4 topi… 0.0408   0.0755
##  2 193       365441.     101.           3613.       75.3 topi… 0.248    0.0320
##  3 205       395574.      88.9          4447.       90.1 topi… 0.0704   0.0898
##  4 206       390642.     117.           3326.       74.7 topi… 0.0683   0.0617
##  5 218       455776.     106.           4296.       82.9 topi… 0.0341   0.0341
##  6 219       378440.     107.           3535.       83.0 topi… 0.0335   0.279 
##  7 246       495319.     109.           4529.       80.6 topi… 0.00719  0.0119
##  8 261       295190.      73.5          4018.       61.9 topi… 0.045    0.025 
##  9 277       403684.     115.           3505.       66.8 topi… 0.108    0.125 
## 10 290       374949.     101.           3729.       70.8 topi… 0.336    0.152 
## # … with 183 more rows, and 13 more variables: topic_3 <dbl>, topic_4 <dbl>,
## #   topic_5 <dbl>, topic_6 <dbl>, topic_7 <dbl>, topic_8 <dbl>, .fitted <dbl>,
## #   .se.fit <dbl>, .resid <dbl>, .hat <dbl>, .sigma <dbl>, .cooksd <dbl>,
## #   .std.resid <dbl>
